{
    "ECHO": "ECHO",
    "LANG": "FR",
    "layout": {
        "header": {
            "brand": "data·café",
            "library": "Bibliothèque"
        },
        "sidebar": {
            "profile": "Profil",
            "visualisations": "Visualisations",
            "models": "Modèles",
            "data": "Données",
            "summary": "Résumé"
        }
    },
    "pages": {
        "home": {
            "welcome": "Bienvenue sur data·café !"
        },
        "not-found": {
            "404": "404",
            "text": "page introuvable"
        }
    },
    "ui": {
        "button": {
            "details": "Détails",
            "logout": "Déconnexion",
            "login": "Connexion"
        },
        "role": {
            "scientist": "Scientifique",
            "guest": "Invité",
            "dev": "Developpeur",
            "admin": "Administrateur"
        }
    }
}
